RR1 2nd draft
…
top_50_universes <- universe_counts %>%
  slice_head(n = 50)
top_50_list <- top_50_universes$universe

Data_top50 <- Data_RR1 %>%
  filter(universe %in% top_50_list)

top_50_universes

# A tibble: 50 × 2
   universe      n
   <chr>     <int>
 1 HP       367870
 2 MCU      192186
 3 S        122785
 4 TO       120131
 5 ALA      103448
 6 GOT       94167
 7 ST        90862
 8 MG        89475
 9 FR        83999
10 LK        76173
# ℹ 40 more rows
…
